# Blender MTL File: 'dummy_hierarchy.blend'
# Material Count: 1

newmtl Lead_(Pb)_oxyde
Ns 96.078431
Ka 1.000000 1.000000 1.000000
Kd 0.640000 0.640000 0.640000
Ks 0.500000 0.500000 0.500000
Ke 0.000000 0.000000 0.000000
Ni 1.000000
d 1.000000
illum 2
shell.density 11340.000000
shell.heat_capacity 1130.000000
shell.thermal_conductivity 35.299999
shell.thickness 0.010000
front.specular_reflectance 0.100000
front.diffuse_reflectance 0.100000
front.absorbance 0.800000
front.transmittance 0.000000
front.emissivity 0.000000
rear.specular_reflectance 0.100000
rear.diffuse_reflectance 0.100000
rear.absorbance 0.800000
rear.transmittance 0.000000
rear.emissivity 0.000000
